module github.com/jameshwc/Million-Singer

go 1.15

require (
	github.com/DATA-DOG/go-sqlmock v1.5.0
	github.com/astaxie/beego v1.12.2
	github.com/beevik/etree v1.1.0
	github.com/bshuster-repo/logrus-logstash-hook v1.0.0
	github.com/c9s/goprocinfo v0.0.0-20200311234719-5750cbd54a3b
	github.com/cenkalti/backoff v2.2.1+incompatible // indirect
	github.com/cenkalti/backoff/v3 v3.2.2 // indirect
	github.com/containerd/continuity v0.0.0-20200928162600-f2cc35102c2a // indirect
	github.com/dgrijalva/jwt-go v3.2.0+incompatible
	github.com/gin-contrib/cors v1.3.1
	github.com/gin-gonic/contrib v0.0.0-20201101042839-6a891bf89f19
	github.com/gin-gonic/gin v1.6.3
	github.com/go-openapi/spec v0.19.9 // indirect
	github.com/go-openapi/swag v0.19.9 // indirect
	github.com/go-redis/redis v6.14.2+incompatible
	github.com/go-sql-driver/mysql v1.5.0
	github.com/gomodule/redigo v2.0.0+incompatible
	github.com/google/go-cmp v0.5.1 // indirect
	github.com/joho/godotenv v1.3.0
	github.com/mailru/easyjson v0.7.6 // indirect
	github.com/onsi/ginkgo v1.14.1 // indirect
	github.com/onsi/gomega v1.10.2 // indirect
	github.com/ory/dockertest v3.3.5+incompatible
	github.com/ory/dockertest/v3 v3.6.2 // indirect
	github.com/prometheus/client_golang v1.7.1
	github.com/sirupsen/logrus v1.7.0
	github.com/stretchr/testify v1.6.1 // indirect
	github.com/swaggo/files v0.0.0-20190704085106-630677cd5c14
	github.com/swaggo/gin-swagger v1.2.0
	github.com/swaggo/swag v1.6.7 // indirect
	golang.org/x/mod v0.3.1-0.20200828183125-ce943fd02449 // indirect
	golang.org/x/net v0.0.0-20201016165138-7b1cca2348c0 // indirect
	golang.org/x/sys v0.0.0-20201018230417-eeed37f84f13 // indirect
	golang.org/x/tools v0.0.0-20200911193555-6422fca01df9 // indirect
	gorm.io/driver/mysql v1.0.1
	gorm.io/gorm v1.20.1
)
